<?xml version="1.0" encoding="UTF-8" standalone="no"?>
<!DOCTYPE svg PUBLIC "-//W3C//DTD SVG 1.1//EN" "http://www.w3.org/Graphics/SVG/1.1/DTD/svg11.dtd">
<svg width="100%" height="100%" viewBox="0 0 64 64" version="1.1" xmlns="http://www.w3.org/2000/svg" xmlns:xlink="http://www.w3.org/1999/xlink" xml:space="preserve" xmlns:serif="http://www.serif.com/" style="fill-rule:evenodd;clip-rule:evenodd;stroke-linejoin:round;stroke-miterlimit:2;">
    <g transform="matrix(1.02059,0,0,1.02252,-0.0792435,-0.148318)">
        <path d="M62.787,15.793C62.787,7.157 55.762,0.145 47.109,0.145L15.755,0.145C7.102,0.145 0.078,7.157 0.078,15.793L0.078,47.088C0.078,55.724 7.102,62.735 15.755,62.735L47.109,62.735C55.762,62.735 62.787,55.724 62.787,47.088L62.787,15.793Z" style="fill:rgb(34,34,34);"/>
    </g>
    <g transform="matrix(72.1817,0,0,72.1817,5.29277,56.0365)">
        <path d="M0.02,-0.333C0.02,-0.381 0.029,-0.426 0.048,-0.469C0.066,-0.512 0.091,-0.549 0.123,-0.581C0.154,-0.612 0.191,-0.637 0.234,-0.656C0.277,-0.674 0.322,-0.683 0.37,-0.683C0.418,-0.683 0.463,-0.674 0.506,-0.656C0.549,-0.637 0.586,-0.612 0.618,-0.581C0.649,-0.549 0.674,-0.512 0.693,-0.469C0.711,-0.426 0.72,-0.381 0.72,-0.333C0.72,-0.285 0.711,-0.24 0.693,-0.197C0.674,-0.154 0.649,-0.117 0.618,-0.086C0.586,-0.054 0.549,-0.029 0.506,-0.011C0.463,0.008 0.418,0.017 0.37,0.017C0.322,0.017 0.277,0.008 0.234,-0.011C0.191,-0.029 0.154,-0.054 0.123,-0.086C0.091,-0.117 0.066,-0.154 0.048,-0.197C0.029,-0.24 0.02,-0.285 0.02,-0.333ZM0.114,-0.333C0.114,-0.298 0.121,-0.265 0.134,-0.234C0.147,-0.203 0.166,-0.175 0.189,-0.152C0.212,-0.129 0.24,-0.11 0.271,-0.097C0.302,-0.084 0.335,-0.077 0.37,-0.077C0.405,-0.077 0.439,-0.084 0.47,-0.097C0.501,-0.11 0.528,-0.129 0.551,-0.152C0.574,-0.175 0.593,-0.203 0.606,-0.234C0.619,-0.265 0.626,-0.298 0.626,-0.333C0.626,-0.368 0.619,-0.401 0.606,-0.433C0.593,-0.464 0.574,-0.491 0.551,-0.514C0.528,-0.537 0.501,-0.556 0.47,-0.569C0.439,-0.582 0.405,-0.589 0.37,-0.589C0.335,-0.589 0.302,-0.582 0.271,-0.569C0.24,-0.556 0.212,-0.537 0.189,-0.514C0.166,-0.491 0.147,-0.464 0.134,-0.433C0.121,-0.401 0.114,-0.368 0.114,-0.333ZM0.23,-0.333C0.23,-0.314 0.234,-0.296 0.241,-0.279C0.248,-0.262 0.258,-0.247 0.271,-0.234C0.284,-0.221 0.299,-0.211 0.316,-0.204C0.333,-0.197 0.351,-0.193 0.37,-0.193C0.389,-0.193 0.408,-0.197 0.425,-0.204C0.442,-0.211 0.456,-0.221 0.469,-0.234C0.482,-0.247 0.492,-0.262 0.499,-0.279C0.506,-0.296 0.51,-0.314 0.51,-0.333C0.51,-0.352 0.506,-0.371 0.499,-0.388C0.492,-0.405 0.482,-0.419 0.469,-0.432C0.456,-0.445 0.442,-0.455 0.425,-0.462C0.408,-0.469 0.389,-0.473 0.37,-0.473C0.351,-0.473 0.333,-0.469 0.316,-0.462C0.299,-0.455 0.284,-0.445 0.271,-0.432C0.258,-0.419 0.248,-0.405 0.241,-0.388C0.234,-0.371 0.23,-0.352 0.23,-0.333ZM0.37,-0.103C0.338,-0.103 0.308,-0.109 0.281,-0.121C0.253,-0.133 0.229,-0.15 0.208,-0.171C0.187,-0.192 0.17,-0.216 0.158,-0.244C0.146,-0.271 0.14,-0.301 0.14,-0.333C0.14,-0.365 0.146,-0.395 0.158,-0.423C0.17,-0.45 0.187,-0.474 0.208,-0.496C0.229,-0.517 0.253,-0.533 0.281,-0.545C0.308,-0.557 0.338,-0.563 0.37,-0.563C0.402,-0.563 0.432,-0.557 0.46,-0.545C0.487,-0.533 0.511,-0.517 0.533,-0.496C0.554,-0.474 0.57,-0.45 0.582,-0.423C0.594,-0.395 0.6,-0.365 0.6,-0.333C0.6,-0.301 0.594,-0.271 0.582,-0.244C0.57,-0.216 0.554,-0.192 0.533,-0.171C0.511,-0.15 0.487,-0.133 0.46,-0.121C0.432,-0.109 0.402,-0.103 0.37,-0.103Z" style="fill:rgb(0,182,183);fill-rule:nonzero;"/>
        <path d="M-0.022,-0.333C-0.022,-0.279 -0.011,-0.228 0.009,-0.181C0.03,-0.133 0.058,-0.091 0.093,-0.056C0.128,-0.021 0.17,0.007 0.218,0.028C0.265,0.048 0.316,0.059 0.37,0.059C0.424,0.059 0.475,0.048 0.522,0.028C0.57,0.007 0.612,-0.021 0.647,-0.056C0.682,-0.091 0.71,-0.133 0.731,-0.181C0.751,-0.228 0.762,-0.279 0.762,-0.333C0.762,-0.387 0.751,-0.438 0.731,-0.485C0.71,-0.533 0.682,-0.575 0.647,-0.61C0.612,-0.645 0.57,-0.673 0.522,-0.694C0.475,-0.714 0.424,-0.725 0.37,-0.725C0.316,-0.725 0.265,-0.714 0.218,-0.694C0.17,-0.673 0.128,-0.645 0.093,-0.61C0.058,-0.575 0.03,-0.533 0.009,-0.485C-0.011,-0.438 -0.022,-0.387 -0.022,-0.333ZM0.02,-0.333C0.02,-0.381 0.029,-0.426 0.047,-0.469C0.066,-0.512 0.091,-0.549 0.122,-0.581C0.154,-0.612 0.191,-0.637 0.234,-0.656C0.277,-0.674 0.322,-0.683 0.37,-0.683C0.418,-0.683 0.463,-0.674 0.506,-0.656C0.549,-0.637 0.586,-0.612 0.617,-0.581C0.649,-0.549 0.674,-0.512 0.692,-0.469C0.711,-0.426 0.72,-0.381 0.72,-0.333C0.72,-0.285 0.711,-0.24 0.692,-0.197C0.674,-0.154 0.649,-0.117 0.617,-0.086C0.586,-0.054 0.549,-0.029 0.506,-0.01C0.463,0.008 0.418,0.017 0.37,0.017C0.322,0.017 0.277,0.008 0.234,-0.01C0.191,-0.029 0.154,-0.054 0.122,-0.086C0.091,-0.117 0.066,-0.154 0.047,-0.197C0.029,-0.24 0.02,-0.285 0.02,-0.333ZM0.114,-0.333C0.114,-0.298 0.121,-0.265 0.134,-0.234C0.147,-0.203 0.166,-0.175 0.189,-0.152C0.212,-0.129 0.24,-0.11 0.271,-0.097C0.302,-0.084 0.335,-0.077 0.37,-0.077C0.405,-0.077 0.438,-0.084 0.469,-0.097C0.501,-0.11 0.528,-0.129 0.551,-0.152C0.574,-0.175 0.593,-0.203 0.606,-0.234C0.619,-0.265 0.626,-0.298 0.626,-0.333C0.626,-0.368 0.619,-0.401 0.606,-0.433C0.593,-0.463 0.574,-0.491 0.551,-0.514C0.528,-0.537 0.501,-0.556 0.469,-0.569C0.438,-0.582 0.405,-0.589 0.37,-0.589C0.335,-0.589 0.302,-0.582 0.271,-0.569C0.24,-0.556 0.212,-0.537 0.189,-0.514C0.166,-0.491 0.147,-0.463 0.134,-0.433C0.121,-0.401 0.114,-0.368 0.114,-0.333ZM0.37,-0.103C0.338,-0.103 0.308,-0.109 0.281,-0.121C0.253,-0.133 0.229,-0.149 0.208,-0.171C0.187,-0.192 0.17,-0.216 0.158,-0.243C0.146,-0.271 0.14,-0.301 0.14,-0.333C0.14,-0.365 0.146,-0.395 0.158,-0.423C0.17,-0.45 0.187,-0.474 0.208,-0.495C0.229,-0.517 0.253,-0.533 0.281,-0.545C0.308,-0.557 0.338,-0.563 0.37,-0.563C0.402,-0.563 0.432,-0.557 0.46,-0.545C0.487,-0.533 0.511,-0.517 0.532,-0.495C0.553,-0.474 0.57,-0.45 0.582,-0.423C0.594,-0.395 0.6,-0.365 0.6,-0.333C0.6,-0.301 0.594,-0.271 0.582,-0.243C0.57,-0.216 0.553,-0.192 0.532,-0.171C0.511,-0.149 0.487,-0.133 0.46,-0.121C0.432,-0.109 0.402,-0.103 0.37,-0.103ZM0.23,-0.333C0.23,-0.314 0.234,-0.296 0.241,-0.278C0.248,-0.262 0.258,-0.247 0.271,-0.234C0.284,-0.221 0.299,-0.211 0.315,-0.204C0.332,-0.197 0.351,-0.193 0.37,-0.193C0.389,-0.193 0.408,-0.197 0.424,-0.204C0.442,-0.211 0.456,-0.221 0.469,-0.234C0.482,-0.247 0.492,-0.262 0.499,-0.278C0.506,-0.296 0.51,-0.314 0.51,-0.333C0.51,-0.352 0.506,-0.371 0.499,-0.388C0.492,-0.405 0.482,-0.419 0.469,-0.432C0.456,-0.445 0.442,-0.455 0.424,-0.462C0.408,-0.469 0.389,-0.473 0.37,-0.473C0.351,-0.473 0.332,-0.469 0.315,-0.462C0.299,-0.455 0.284,-0.445 0.271,-0.432C0.258,-0.419 0.248,-0.405 0.241,-0.388C0.234,-0.371 0.23,-0.352 0.23,-0.333ZM0.272,-0.333C0.272,-0.346 0.274,-0.359 0.279,-0.371C0.284,-0.383 0.291,-0.394 0.3,-0.403C0.309,-0.412 0.32,-0.419 0.332,-0.424C0.344,-0.429 0.357,-0.431 0.37,-0.431C0.383,-0.431 0.396,-0.429 0.408,-0.424C0.42,-0.419 0.431,-0.412 0.44,-0.403C0.449,-0.394 0.456,-0.383 0.461,-0.371C0.466,-0.359 0.468,-0.346 0.468,-0.333C0.468,-0.32 0.466,-0.307 0.461,-0.295C0.456,-0.283 0.449,-0.272 0.44,-0.263C0.431,-0.254 0.42,-0.247 0.408,-0.242C0.396,-0.237 0.383,-0.235 0.37,-0.235C0.357,-0.235 0.344,-0.237 0.332,-0.242C0.32,-0.247 0.309,-0.254 0.3,-0.263C0.291,-0.272 0.284,-0.283 0.279,-0.295C0.274,-0.307 0.272,-0.32 0.272,-0.333Z" style="fill:rgb(0,93,93);"/>
    </g>
</svg>
